(module C_Ceramic_220u (layer F.Cu) (tedit 5FFC48C7)
  (fp_text reference REF** (at 0 -4.5) (layer F.SilkS)
    (effects (font (size 1 1) (thickness 0.15)))
  )
  (fp_text value C (at 0 4.5) (layer F.Fab)
    (effects (font (size 1 1) (thickness 0.15)))
  )
  (pad 1 smd rect (at -3 0) (size 2 7) (layers F.Cu F.Paste F.Mask))
  (pad 2 smd rect (at 3 0) (size 2 7) (layers F.Cu F.Paste F.Mask))
)
